<svg xmlns="http://www.w3.org/2000/svg" width="20" height="19" viewBox="0 0 20 19">
  <defs>
    <style>
      .cls-1 {
        fill: none;
        stroke: #06a;
        stroke-width: 1px;
        fill-rule: evenodd;
      }
    </style>
  </defs>
  <path id="squadra" class="cls-1" d="M582.8,255.525v-0.8m0,0v-2.674c0-.025,0-0.05,0-0.076m-10.594,0c0,0.026,0,.051,0,0.076v2.673m0,0v0.8m0,0v3.468A3.047,3.047,0,0,0,575.27,262h4.46a3.047,3.047,0,0,0,3.069-3.007v-3.468M586,251.3a5.331,5.331,0,0,0-3.822-5.063m0.621,9.291h0.132A3.047,3.047,0,0,0,586,252.518v-0.8m-3.822-5.486A5.472,5.472,0,0,0,580.6,246h-0.083m2.285,8.727h0.132A3.048,3.048,0,0,0,586,251.72m-13.148-5.438A5.539,5.539,0,0,0,569,251.507m5.487-5.5a5.66,5.66,0,0,0-1.635.279M569,251.72v0.8a3.047,3.047,0,0,0,3.069,3.007H572.2M569,251.72a3.047,3.047,0,0,0,3.069,3.007H572.2m-3.2-3.22v0.213M574.487,246a3.819,3.819,0,0,0,6.027,0m-7.662.281a5.9,5.9,0,0,0,9.326-.048m-6.937,6.5a0.664,0.664,0,0,0,.47.751h3.578a0.834,0.834,0,0,0,0-1.5h-3.578A0.664,0.664,0,0,0,575.241,252.729Zm0,2.173a0.664,0.664,0,0,0,.47.751h3.578a0.834,0.834,0,0,0,0-1.5h-3.578A0.664,0.664,0,0,0,575.241,254.9Z" transform="translate(-567.5 -244.5)"/>
</svg>
